{
  "type": "service_account",
  "project_id": "alefit-97917",
  "private_key_id": "420d72376c7c99a00766b3a10e799956936b981d",
  "private_key": "-----BEGIN PRIVATE KEY-----\nMIIEvQIBADANBgkqhkiG9w0BAQEFAASCBKcwggSjAgEAAoIBAQCg7cXBE6h2gMRI\nsYDpg+k2aEKVpK/ZT3rC4t4+79cQRscGcM3Y9RMC2G35yEOq4d+MSVSyXxFUIUOz\nUpnhDPwgdhYlEE5zHpCT/iWicunyHoP8gA5W0cK2URm/DP/7KHGLabjXVhrTK84G\ncmz8rvgPWJJ55/PG8Gf2d6c+QDDWrKqaWSBDy4lLP3/wKFBZrHbaZx4ZGIZFCOCq\nmjeZnrsnfbXfzz3tZ5AFIr+LyFEFW3kOjS3/4MygiEEIaCVAz0A5iUTXRQcQgXbq\n9Xw2TjlxmIg/9Vr4AMyPq5Zh1TsYJpxTuOrm+dHMCM4t08ez/RDpMYeIWOy3Mc3Z\nbBNPh4N5AgMBAAECggEAHMI5GZa5f4nl6ea8tp5h7hzmL0dZvJBBTDQOSvmB+bDo\nTsyYYLn1Log+aQminBZW5INTTTgDiQETz+dGRAtVwDhSH0gBeP2gkS31DEmUaLYO\n2LAKv/Wm4f1uyC9azIeu+N7JD0ReMVgt7oWC2AotntJxhLMQo7/hGFDMNKn0gFxc\n4cJvAFujpEiH8Vf3yWjMgBsIqu2Lqa+QgeP/nonsamspD+3XcD0Ry/TXSP9DGHjo\nPbqITnpgIq+AI/DU4Mv2Eq4axJIp6SNv/xmlkLTR9RrIC/1rfxvHDMuMTYbNyIaZ\nJvSWlNwE2oTA2LuRqvne2DmCTaadkVez/l21LLtUHQKBgQDRGjvvXDKoQZnD14pm\n7QT2s1o0qwoPvlUNl9o3SfPzdQlxQIwRjf3kKVI34N2YtUkBWsfs04E5iCSikRZu\nhNBnvRoUnEKpmiBSlBSc6+O957aW40Qxlyn9H7q+2CAALIdWdHjFCKcCJ6Gdnnog\n1wevzrB6+YoA6PtIhLpeB7rlhQKBgQDFBZzazxzaxBnlbuChtxdXTSHpahLX90B1\nCLHsmBgNGHAz65xClaStYfkPoV/pZWlNA+nupCtzZjaEnUbjDg4uoeKCSd0PBb8a\nTjgnlcZ27ZnOi/H0plZbI1uXOTN+bD63DyGv/L+HszAdbcAPf40iliIE4zSOz1aV\nz4BKdx3+ZQKBgALJ4Ma+agaIaW6NL1FUE97eYXOWXFn9ZdD6l3RpThGPHAMgoz2Q\nsTQbwPbxzsK8mC6mcUgdQfnscOCiIrRynPzlLrXbp5/vaELxqpy1IKJltq+odD5d\nD7hKdgkZhMO71Eo432txRBjpQmSBuos5kuarUPsy3L5KXR+IdZvPapSpAoGAdu2U\naWBsAoItP5lWb0eeB0zAE628AjF17y94d2C34+/EixLGGEtMRHzHYu/+fVyB28Np\nCmx+7gHdFt/5UkXBudRubkc38UF+wdpFe1+llVSHa25+dzeRGSKWvwoAU2fz03yG\n0Ty4QKmheaIuNSzBfQczMdAUgcAWfAftYQXWTSECgYEAk3Dgp0rfi6YeS7e90EW4\nerFEySDR7wIFDojRP3nWcFdkPm1H+v7dF4nkX7sVr2VsulrET8KekVSgvBcTSoNB\nvwPY9pH1vnl2l1vD33ChcIpL/2FOZKLhOpxR+WdkoSRfK7GBpds79rWJlDMwFuff\nFxXlCnzDD8HeAWgQsEUvYMk=\n-----END PRIVATE KEY-----\n",
  "client_email": "firebase-adminsdk-lxsqe@alefit-97917.iam.gserviceaccount.com",
  "client_id": "101442048167784232175",
  "auth_uri": "https://accounts.google.com/o/oauth2/auth",
  "token_uri": "https://oauth2.googleapis.com/token",
  "auth_provider_x509_cert_url": "https://www.googleapis.com/oauth2/v1/certs",
  "client_x509_cert_url": "https://www.googleapis.com/robot/v1/metadata/x509/firebase-adminsdk-lxsqe%40alefit-97917.iam.gserviceaccount.com"
}
